%YAML 1.1
%TAG !u! tag:unity3d.com,2011:
--- !u!74 &7400000
AnimationClip:
  m_ObjectHideFlags: 0
  m_PrefabParentObject: {fileID: 0}
  m_PrefabInternal: {fileID: 0}
  m_Name: BallMoving
  serializedVersion: 6
  m_Legacy: 0
  m_Compressed: 0
  m_UseHighQualityCurve: 1
  m_RotationCurves: []
  m_CompressedRotationCurves: []
  m_EulerCurves: []
  m_PositionCurves: []
  m_ScaleCurves: []
  m_FloatCurves: []
  m_PPtrCurves:
  - curve:
    - time: 0
      value: {fileID: 21300000, guid: 9bdb699de768dcf488c0e99b299cc1e9, type: 3}
    - time: 0.14285715
      value: {fileID: 21300000, guid: 4b82623bf6695d5448ad2867eceab468, type: 3}
    - time: 0.2857143
      value: {fileID: 21300000, guid: a6544eab442fa944a93bf692faa0abc7, type: 3}
    - time: 0.42857143
      value: {fileID: 21300000, guid: 52768b6e8de536b4cb104147c352a92b, type: 3}
    - time: 0.5714286
      value: {fileID: 21300000, guid: 907516a74f857ef41ad25c54dd0bd937, type: 3}
    - time: 0.71428573
      value: {fileID: 21300000, guid: f3289c1609c21d84facd073027212f95, type: 3}
    - time: 0.85714287
      value: {fileID: 21300000, guid: 08b8a0698d5a4d24db680f37be9b7ee7, type: 3}
    attribute: m_Sprite
    path: 
    classID: 212
    script: {fileID: 0}
  m_SampleRate: 7
  m_WrapMode: 0
  m_Bounds:
    m_Center: {x: 0, y: 0, z: 0}
    m_Extent: {x: 0, y: 0, z: 0}
  m_ClipBindingConstant:
    genericBindings:
    - serializedVersion: 2
      path: 0
      attribute: 0
      script: {fileID: 0}
      typeID: 212
      customType: 23
      isPPtrCurve: 1
    pptrCurveMapping:
    - {fileID: 21300000, guid: 9bdb699de768dcf488c0e99b299cc1e9, type: 3}
    - {fileID: 21300000, guid: 4b82623bf6695d5448ad2867eceab468, type: 3}
    - {fileID: 21300000, guid: a6544eab442fa944a93bf692faa0abc7, type: 3}
    - {fileID: 21300000, guid: 52768b6e8de536b4cb104147c352a92b, type: 3}
    - {fileID: 21300000, guid: 907516a74f857ef41ad25c54dd0bd937, type: 3}
    - {fileID: 21300000, guid: f3289c1609c21d84facd073027212f95, type: 3}
    - {fileID: 21300000, guid: 08b8a0698d5a4d24db680f37be9b7ee7, type: 3}
  m_AnimationClipSettings:
    serializedVersion: 2
    m_AdditiveReferencePoseClip: {fileID: 0}
    m_AdditiveReferencePoseTime: 0
    m_StartTime: 0
    m_StopTime: 1
    m_OrientationOffsetY: 0
    m_Level: 0
    m_CycleOffset: 0
    m_HasAdditiveReferencePose: 0
    m_LoopTime: 1
    m_LoopBlend: 0
    m_LoopBlendOrientation: 0
    m_LoopBlendPositionY: 0
    m_LoopBlendPositionXZ: 0
    m_KeepOriginalOrientation: 0
    m_KeepOriginalPositionY: 1
    m_KeepOriginalPositionXZ: 0
    m_HeightFromFeet: 0
    m_Mirror: 0
  m_EditorCurves: []
  m_EulerEditorCurves: []
  m_HasGenericRootTransform: 0
  m_HasMotionFloatCurves: 0
  m_GenerateMotionCurves: 0
  m_Events: []
