%YAML 1.1
%TAG !u! tag:unity3d.com,2011:
--- !u!1045 &1
EditorBuildSettings:
  m_ObjectHideFlags: 0
  serializedVersion: 2
  m_Scenes:
  - enabled: 1
    path: Assets/Scenes/Menu.unity
    guid: 3b0cae029e61d644892f68d5e4dc0e84
  - enabled: 1
    path: Assets/Scenes/Final.unity
    guid: be341443eef4d9d419d58d4d0f6f676e
  - enabled: 1
    path: Assets/Scenes/Instrucoes.unity
    guid: 9dbadd6da579a9a4ea3bf633ab0ec140
  - enabled: 1
    path: Assets/Scenes/End.unity
    guid: bd4a27c718b0b7e419298913aaf07895
  - enabled: 1
    path: Assets/Scenes/naves.unity
    guid: 1220edd2bd373044c9c91d02e4d9efe9
  m_configObjects: {}
