%YAML 1.1
%TAG !u! tag:unity3d.com,2011:
--- !u!78 &1
TagManager:
  serializedVersion: 2
  tags:
  - Time1
  - Time2
  - Ball
  layers:
  - Default
  - TransparentFX
  - Ignore Raycast
  - 
  - Water
  - UI
  - 
  - 
  - Time1
  - Time2
  - Ball
  - Ball Limits
  - 
  - 
  - 
  - 
  - 
  - 
  - 
  - 
  - 
  - 
  - 
  - 
  - 
  - 
  - 
  - 
  - 
  - 
  - 
  - 
  m_SortingLayers:
  - name: Default
    uniqueID: 0
    locked: 0
  - name: Ball
    uniqueID: 2670128713
    locked: 0
  - name: Player
    uniqueID: 403329637
    locked: 0
  - name: HUD
    uniqueID: 1269068299
    locked: 0
