%YAML 1.1
%TAG !u! tag:unity3d.com,2011:
--- !u!1001 &100100000
Prefab:
  m_ObjectHideFlags: 1
  serializedVersion: 2
  m_Modification:
    m_TransformParent: {fileID: 0}
    m_Modifications: []
    m_RemovedComponents: []
  m_ParentPrefab: {fileID: 0}
  m_RootGameObject: {fileID: 1550464643467100}
  m_IsPrefabParent: 1
--- !u!1 &1550464643467100
GameObject:
  m_ObjectHideFlags: 0
  m_PrefabParentObject: {fileID: 0}
  m_PrefabInternal: {fileID: 100100000}
  serializedVersion: 5
  m_Component:
  - component: {fileID: 4412121531744722}
  - component: {fileID: 212143399459459892}
  - component: {fileID: 114200325860017300}
  m_Layer: 0
  m_Name: Judge
  m_TagString: Untagged
  m_Icon: {fileID: 0}
  m_NavMeshLayer: 0
  m_StaticEditorFlags: 0
  m_IsActive: 1
--- !u!4 &4412121531744722
Transform:
  m_ObjectHideFlags: 1
  m_PrefabParentObject: {fileID: 0}
  m_PrefabInternal: {fileID: 100100000}
  m_GameObject: {fileID: 1550464643467100}
  m_LocalRotation: {x: 0, y: 0, z: 0.9914449, w: 0.13052626}
  m_LocalPosition: {x: 0, y: -3, z: -2}
  m_LocalScale: {x: 1, y: 1, z: 1}
  m_Children: []
  m_Father: {fileID: 0}
  m_RootOrder: 0
  m_LocalEulerAnglesHint: {x: 0, y: 0, z: 165}
--- !u!114 &114200325860017300
MonoBehaviour:
  m_ObjectHideFlags: 1
  m_PrefabParentObject: {fileID: 0}
  m_PrefabInternal: {fileID: 100100000}
  m_GameObject: {fileID: 1550464643467100}
  m_Enabled: 1
  m_EditorHideFlags: 0
  m_Script: {fileID: 11500000, guid: d25763b85ab7d469e8658095e7613195, type: 3}
  m_Name: 
  m_EditorClassIdentifier: 
  target: {x: 0, y: 0}
  spr:
  - {fileID: 21300000, guid: a93194dee078a4ab8974237090beb5ab, type: 3}
  - {fileID: 21300002, guid: a93194dee078a4ab8974237090beb5ab, type: 3}
  - {fileID: 21300004, guid: a93194dee078a4ab8974237090beb5ab, type: 3}
  - {fileID: 21300006, guid: a93194dee078a4ab8974237090beb5ab, type: 3}
  - {fileID: 21300008, guid: a93194dee078a4ab8974237090beb5ab, type: 3}
  sprText:
  - {fileID: 21300000, guid: a00582b722f574f92ab314347a13822a, type: 3}
  - {fileID: 21300002, guid: a00582b722f574f92ab314347a13822a, type: 3}
  - {fileID: 21300004, guid: a00582b722f574f92ab314347a13822a, type: 3}
  - {fileID: 21300006, guid: a00582b722f574f92ab314347a13822a, type: 3}
  text: {fileID: 0}
  magnitude: 7
--- !u!212 &212143399459459892
SpriteRenderer:
  m_ObjectHideFlags: 1
  m_PrefabParentObject: {fileID: 0}
  m_PrefabInternal: {fileID: 100100000}
  m_GameObject: {fileID: 1550464643467100}
  m_Enabled: 1
  m_CastShadows: 0
  m_ReceiveShadows: 0
  m_DynamicOccludee: 1
  m_MotionVectors: 1
  m_LightProbeUsage: 1
  m_ReflectionProbeUsage: 1
  m_Materials:
  - {fileID: 10754, guid: 0000000000000000f000000000000000, type: 0}
  m_StaticBatchInfo:
    firstSubMesh: 0
    subMeshCount: 0
  m_StaticBatchRoot: {fileID: 0}
  m_ProbeAnchor: {fileID: 0}
  m_LightProbeVolumeOverride: {fileID: 0}
  m_ScaleInLightmap: 1
  m_PreserveUVs: 0
  m_IgnoreNormalsForChartDetection: 0
  m_ImportantGI: 0
  m_StitchLightmapSeams: 0
  m_SelectedEditorRenderState: 0
  m_MinimumChartSize: 4
  m_AutoUVMaxDistance: 0.5
  m_AutoUVMaxAngle: 89
  m_LightmapParameters: {fileID: 0}
  m_SortingLayerID: 0
  m_SortingLayer: 0
  m_SortingOrder: 1
  m_Sprite: {fileID: 21300000, guid: a93194dee078a4ab8974237090beb5ab, type: 3}
  m_Color: {r: 1, g: 1, b: 1, a: 1}
  m_FlipX: 0
  m_FlipY: 0
  m_DrawMode: 0
  m_Size: {x: 2.05, y: 1.45}
  m_AdaptiveModeThreshold: 0.5
  m_SpriteTileMode: 0
  m_WasSpriteAssigned: 1
  m_MaskInteraction: 0
